2020-11-13T05:46:51+00:00 INFO Регенерация изображений для идентификатора вложения: 2346
2020-11-13T05:46:52+00:00 INFO Регенерация изображений для идентификатора вложения: 2261
2020-11-13T05:46:52+00:00 INFO Регенерация изображений для идентификатора вложения: 2259
2020-11-13T05:46:52+00:00 INFO Регенерация изображений для идентификатора вложения: 2255
2020-11-13T05:46:53+00:00 INFO Регенерация изображений для идентификатора вложения: 2239
2020-11-13T05:46:54+00:00 INFO Регенерация изображений для идентификатора вложения: 2197
2020-11-13T05:46:54+00:00 INFO Регенерация изображений для идентификатора вложения: 2193
2020-11-13T05:46:56+00:00 INFO Регенерация изображений для идентификатора вложения: 2188
2020-11-13T05:46:56+00:00 INFO Регенерация изображений для идентификатора вложения: 2182
2020-11-13T05:46:57+00:00 INFO Регенерация изображений для идентификатора вложения: 2168
2020-11-13T05:46:57+00:00 INFO Регенерация изображений для идентификатора вложения: 2166
2020-11-13T05:46:58+00:00 INFO Регенерация изображений для идентификатора вложения: 2164
2020-11-13T05:46:59+00:00 INFO Регенерация изображений для идентификатора вложения: 2161
2020-11-13T05:46:59+00:00 INFO Регенерация изображений для идентификатора вложения: 2159
2020-11-13T05:47:00+00:00 INFO Регенерация изображений для идентификатора вложения: 2157
2020-11-13T05:47:01+00:00 INFO Регенерация изображений для идентификатора вложения: 2155
2020-11-13T05:47:02+00:00 INFO Регенерация изображений для идентификатора вложения: 2120
2020-11-13T05:47:02+00:00 INFO Регенерация изображений для идентификатора вложения: 2113
2020-11-13T05:47:03+00:00 INFO Регенерация изображений для идентификатора вложения: 2112
2020-11-13T05:47:03+00:00 INFO Регенерация изображений для идентификатора вложения: 2110
2020-11-13T05:47:04+00:00 INFO Регенерация изображений для идентификатора вложения: 2109
2020-11-13T05:47:04+00:00 INFO Регенерация изображений для идентификатора вложения: 2108
2020-11-13T05:47:05+00:00 INFO Регенерация изображений для идентификатора вложения: 2107
2020-11-13T05:47:05+00:00 INFO Регенерация изображений для идентификатора вложения: 2106
2020-11-13T05:47:06+00:00 INFO Регенерация изображений для идентификатора вложения: 2105
2020-11-13T05:47:06+00:00 INFO Регенерация изображений для идентификатора вложения: 2103
2020-11-13T05:47:07+00:00 INFO Регенерация изображений для идентификатора вложения: 2100
2020-11-13T05:47:08+00:00 INFO Регенерация изображений для идентификатора вложения: 2098
2020-11-13T05:47:09+00:00 INFO Регенерация изображений для идентификатора вложения: 2082
2020-11-13T05:47:09+00:00 INFO Регенерация изображений для идентификатора вложения: 2080
2020-11-13T05:47:10+00:00 INFO Регенерация изображений для идентификатора вложения: 2058
2020-11-13T05:47:11+00:00 INFO Регенерация изображений для идентификатора вложения: 2057
2020-11-13T05:47:12+00:00 INFO Регенерация изображений для идентификатора вложения: 2056
2020-11-13T05:47:13+00:00 INFO Регенерация изображений для идентификатора вложения: 2053
2020-11-13T05:47:14+00:00 INFO Регенерация изображений для идентификатора вложения: 2036
2020-11-13T05:47:14+00:00 INFO Регенерация изображений для идентификатора вложения: 2031
2020-11-13T05:47:15+00:00 INFO Регенерация изображений для идентификатора вложения: 2026
2020-11-13T05:47:15+00:00 INFO Регенерация изображений для идентификатора вложения: 2015
2020-11-13T05:47:16+00:00 INFO Регенерация изображений для идентификатора вложения: 2013
2020-11-13T05:47:17+00:00 INFO Регенерация изображений для идентификатора вложения: 1966
2020-11-13T05:47:17+00:00 INFO Регенерация изображений для идентификатора вложения: 1965
2020-11-13T05:47:18+00:00 INFO Регенерация изображений для идентификатора вложения: 1964
2020-11-13T05:47:19+00:00 INFO Регенерация изображений для идентификатора вложения: 1963
2020-11-13T05:47:19+00:00 INFO Регенерация изображений для идентификатора вложения: 1962
2020-11-13T05:47:20+00:00 INFO Регенерация изображений для идентификатора вложения: 1961
2020-11-13T05:47:21+00:00 INFO Регенерация изображений для идентификатора вложения: 1960
2020-11-13T05:47:21+00:00 INFO Регенерация изображений для идентификатора вложения: 1959
2020-11-13T05:47:22+00:00 INFO Регенерация изображений для идентификатора вложения: 1958
2020-11-13T05:47:23+00:00 INFO Регенерация изображений для идентификатора вложения: 1957
2020-11-13T05:47:23+00:00 INFO Регенерация изображений для идентификатора вложения: 1956
2020-11-13T05:47:24+00:00 INFO Регенерация изображений для идентификатора вложения: 1955
2020-11-13T05:47:25+00:00 INFO Регенерация изображений для идентификатора вложения: 1954
2020-11-13T05:47:25+00:00 INFO Регенерация изображений для идентификатора вложения: 1953
2020-11-13T05:47:26+00:00 INFO Регенерация изображений для идентификатора вложения: 1952
2020-11-13T05:47:27+00:00 INFO Регенерация изображений для идентификатора вложения: 1951
2020-11-13T05:47:27+00:00 INFO Регенерация изображений для идентификатора вложения: 1950
2020-11-13T05:47:28+00:00 INFO Регенерация изображений для идентификатора вложения: 1941
2020-11-13T05:47:29+00:00 INFO Регенерация изображений для идентификатора вложения: 1940
2020-11-13T05:47:30+00:00 INFO Регенерация изображений для идентификатора вложения: 1939
2020-11-13T05:47:30+00:00 INFO Регенерация изображений для идентификатора вложения: 1938
2020-11-13T05:47:31+00:00 INFO Регенерация изображений для идентификатора вложения: 1934
2020-11-13T05:47:32+00:00 INFO Регенерация изображений для идентификатора вложения: 1933
2020-11-13T05:47:33+00:00 INFO Регенерация изображений для идентификатора вложения: 1932
2020-11-13T05:47:33+00:00 INFO Регенерация изображений для идентификатора вложения: 1931
2020-11-13T05:47:34+00:00 INFO Регенерация изображений для идентификатора вложения: 1930
2020-11-13T05:47:35+00:00 INFO Регенерация изображений для идентификатора вложения: 1928
2020-11-13T05:47:35+00:00 INFO Регенерация изображений для идентификатора вложения: 1927
2020-11-13T05:47:36+00:00 INFO Регенерация изображений для идентификатора вложения: 1926
2020-11-13T05:47:37+00:00 INFO Регенерация изображений для идентификатора вложения: 1925
2020-11-13T05:47:37+00:00 INFO Регенерация изображений для идентификатора вложения: 1924
2020-11-13T05:47:38+00:00 INFO Регенерация изображений для идентификатора вложения: 1921
2020-11-13T05:47:39+00:00 INFO Регенерация изображений для идентификатора вложения: 1920
2020-11-13T05:47:40+00:00 INFO Регенерация изображений для идентификатора вложения: 1919
2020-11-13T05:47:40+00:00 INFO Регенерация изображений для идентификатора вложения: 1918
2020-11-13T05:47:41+00:00 INFO Регенерация изображений для идентификатора вложения: 1917
2020-11-13T05:47:42+00:00 INFO Регенерация изображений для идентификатора вложения: 1916
2020-11-13T05:47:42+00:00 INFO Регенерация изображений для идентификатора вложения: 1915
2020-11-13T05:47:43+00:00 INFO Регенерация изображений для идентификатора вложения: 1914
2020-11-13T05:47:44+00:00 INFO Регенерация изображений для идентификатора вложения: 1913
2020-11-13T05:47:44+00:00 INFO Регенерация изображений для идентификатора вложения: 1912
2020-11-13T05:47:45+00:00 INFO Регенерация изображений для идентификатора вложения: 1911
2020-11-13T05:47:46+00:00 INFO Регенерация изображений для идентификатора вложения: 1910
2020-11-13T05:47:47+00:00 INFO Регенерация изображений для идентификатора вложения: 1902
2020-11-13T05:47:47+00:00 INFO Регенерация изображений для идентификатора вложения: 1899
2020-11-13T05:47:48+00:00 INFO Регенерация изображений для идентификатора вложения: 1896
2020-11-13T05:47:48+00:00 INFO Регенерация изображений для идентификатора вложения: 1848
2020-11-13T05:47:49+00:00 INFO Регенерация изображений для идентификатора вложения: 1273
2020-11-13T05:47:49+00:00 INFO Регенерация изображений для идентификатора вложения: 1265
2020-11-13T05:47:50+00:00 INFO Регенерация изображений для идентификатора вложения: 1264
2020-11-13T05:47:51+00:00 INFO Регенерация изображений для идентификатора вложения: 1249
2020-11-13T05:47:51+00:00 INFO Регенерация изображений для идентификатора вложения: 1199
2020-11-13T05:47:52+00:00 INFO Регенерация изображений для идентификатора вложения: 1173
2020-11-13T05:47:52+00:00 INFO Регенерация изображений для идентификатора вложения: 1107
2020-11-13T05:47:53+00:00 INFO Регенерация изображений для идентификатора вложения: 1091
2020-11-13T05:47:54+00:00 INFO Регенерация изображений для идентификатора вложения: 1079
2020-11-13T05:47:54+00:00 INFO Регенерация изображений для идентификатора вложения: 1073
2020-11-13T05:47:55+00:00 INFO Регенерация изображений для идентификатора вложения: 1037
2020-11-13T05:47:55+00:00 INFO Регенерация изображений для идентификатора вложения: 1024
2020-11-13T05:47:56+00:00 INFO Регенерация изображений для идентификатора вложения: 1023
2020-11-13T05:47:56+00:00 INFO Регенерация изображений для идентификатора вложения: 1022
2020-11-13T05:47:57+00:00 INFO Регенерация изображений для идентификатора вложения: 1021
2020-11-13T05:47:57+00:00 INFO Регенерация изображений для идентификатора вложения: 1020
2020-11-13T05:47:57+00:00 INFO Регенерация изображений для идентификатора вложения: 1019
2020-11-13T05:47:58+00:00 INFO Регенерация изображений для идентификатора вложения: 997
2020-11-13T05:47:58+00:00 INFO Регенерация изображений для идентификатора вложения: 953
2020-11-13T05:47:59+00:00 INFO Регенерация изображений для идентификатора вложения: 952
2020-11-13T05:47:59+00:00 INFO Регенерация изображений для идентификатора вложения: 951
2020-11-13T05:48:00+00:00 INFO Регенерация изображений для идентификатора вложения: 946
2020-11-13T05:48:00+00:00 INFO Регенерация изображений для идентификатора вложения: 924
2020-11-13T05:48:01+00:00 INFO Регенерация изображений для идентификатора вложения: 919
2020-11-13T05:48:01+00:00 INFO Регенерация изображений для идентификатора вложения: 895
2020-11-13T05:48:02+00:00 INFO Регенерация изображений для идентификатора вложения: 894
2020-11-13T05:48:02+00:00 INFO Регенерация изображений для идентификатора вложения: 893
2020-11-13T05:48:04+00:00 INFO Регенерация изображений для идентификатора вложения: 892
2020-11-13T05:48:04+00:00 INFO Регенерация изображений для идентификатора вложения: 891
2020-11-13T05:48:05+00:00 INFO Регенерация изображений для идентификатора вложения: 890
2020-11-13T05:48:05+00:00 INFO Регенерация изображений для идентификатора вложения: 871
2020-11-13T05:48:06+00:00 INFO Регенерация изображений для идентификатора вложения: 868
2020-11-13T05:48:06+00:00 INFO Регенерация изображений для идентификатора вложения: 865
2020-11-13T05:48:07+00:00 INFO Регенерация изображений для идентификатора вложения: 862
2020-11-13T05:48:07+00:00 INFO Регенерация изображений для идентификатора вложения: 859
2020-11-13T05:48:08+00:00 INFO Регенерация изображений для идентификатора вложения: 856
2020-11-13T05:48:08+00:00 INFO Регенерация изображений для идентификатора вложения: 853
2020-11-13T05:48:09+00:00 INFO Регенерация изображений для идентификатора вложения: 838
2020-11-13T05:48:09+00:00 INFO Регенерация изображений для идентификатора вложения: 835
2020-11-13T05:48:09+00:00 INFO Регенерация изображений для идентификатора вложения: 804
2020-11-13T05:48:10+00:00 INFO Регенерация изображений для идентификатора вложения: 796
2020-11-13T05:48:11+00:00 INFO Регенерация изображений для идентификатора вложения: 762
2020-11-13T05:48:11+00:00 INFO Регенерация изображений для идентификатора вложения: 761
2020-11-13T05:48:11+00:00 INFO Регенерация изображений для идентификатора вложения: 760
2020-11-13T05:48:12+00:00 INFO Регенерация изображений для идентификатора вложения: 754
2020-11-13T05:48:12+00:00 INFO Регенерация изображений для идентификатора вложения: 742
2020-11-13T05:48:13+00:00 INFO Регенерация изображений для идентификатора вложения: 741
2020-11-13T05:48:14+00:00 INFO Регенерация изображений для идентификатора вложения: 740
2020-11-13T05:48:14+00:00 INFO Регенерация изображений для идентификатора вложения: 739
2020-11-13T05:48:15+00:00 INFO Регенерация изображений для идентификатора вложения: 737
2020-11-13T05:48:15+00:00 INFO Регенерация изображений для идентификатора вложения: 736
2020-11-13T05:48:16+00:00 INFO Регенерация изображений для идентификатора вложения: 735
2020-11-13T05:48:17+00:00 INFO Регенерация изображений для идентификатора вложения: 734
2020-11-13T05:48:18+00:00 INFO Регенерация изображений для идентификатора вложения: 733
2020-11-13T05:48:18+00:00 INFO Регенерация изображений для идентификатора вложения: 731
2020-11-13T05:48:19+00:00 INFO Регенерация изображений для идентификатора вложения: 730
2020-11-13T05:48:19+00:00 INFO Регенерация изображений для идентификатора вложения: 729
2020-11-13T05:48:20+00:00 INFO Регенерация изображений для идентификатора вложения: 728
2020-11-13T05:48:21+00:00 INFO Регенерация изображений для идентификатора вложения: 727
2020-11-13T05:48:21+00:00 INFO Регенерация изображений для идентификатора вложения: 725
2020-11-13T05:48:22+00:00 INFO Регенерация изображений для идентификатора вложения: 724
2020-11-13T05:48:23+00:00 INFO Регенерация изображений для идентификатора вложения: 723
2020-11-13T05:48:23+00:00 INFO Регенерация изображений для идентификатора вложения: 722
2020-11-13T05:48:24+00:00 INFO Регенерация изображений для идентификатора вложения: 721
2020-11-13T05:48:24+00:00 INFO Регенерация изображений для идентификатора вложения: 719
2020-11-13T05:48:25+00:00 INFO Регенерация изображений для идентификатора вложения: 718
2020-11-13T05:48:26+00:00 INFO Регенерация изображений для идентификатора вложения: 717
2020-11-13T05:48:26+00:00 INFO Регенерация изображений для идентификатора вложения: 716
2020-11-13T05:48:27+00:00 INFO Регенерация изображений для идентификатора вложения: 713
2020-11-13T05:48:28+00:00 INFO Регенерация изображений для идентификатора вложения: 712
2020-11-13T05:48:28+00:00 INFO Регенерация изображений для идентификатора вложения: 711
2020-11-13T05:48:29+00:00 INFO Регенерация изображений для идентификатора вложения: 710
2020-11-13T05:48:30+00:00 INFO Регенерация изображений для идентификатора вложения: 682
2020-11-13T05:48:30+00:00 INFO Регенерация изображений для идентификатора вложения: 681
2020-11-13T05:48:31+00:00 INFO Регенерация изображений для идентификатора вложения: 680
2020-11-13T05:48:31+00:00 INFO Регенерация изображений для идентификатора вложения: 678
2020-11-13T05:48:32+00:00 INFO Регенерация изображений для идентификатора вложения: 658
2020-11-13T05:48:33+00:00 INFO Регенерация изображений для идентификатора вложения: 657
2020-11-13T05:48:33+00:00 INFO Регенерация изображений для идентификатора вложения: 656
2020-11-13T05:48:34+00:00 INFO Регенерация изображений для идентификатора вложения: 655
2020-11-13T05:48:35+00:00 INFO Регенерация изображений для идентификатора вложения: 625
2020-11-13T05:48:36+00:00 INFO Регенерация изображений для идентификатора вложения: 624
2020-11-13T05:48:36+00:00 INFO Регенерация изображений для идентификатора вложения: 623
2020-11-13T05:48:37+00:00 INFO Регенерация изображений для идентификатора вложения: 622
2020-11-13T05:48:37+00:00 INFO Регенерация изображений для идентификатора вложения: 620
2020-11-13T05:48:38+00:00 INFO Регенерация изображений для идентификатора вложения: 619
2020-11-13T05:48:39+00:00 INFO Регенерация изображений для идентификатора вложения: 618
2020-11-13T05:48:39+00:00 INFO Регенерация изображений для идентификатора вложения: 615
2020-11-13T05:48:40+00:00 INFO Регенерация изображений для идентификатора вложения: 614
2020-11-13T05:48:40+00:00 INFO Регенерация изображений для идентификатора вложения: 613
2020-11-13T05:48:41+00:00 INFO Регенерация изображений для идентификатора вложения: 612
2020-11-13T05:48:41+00:00 INFO Регенерация изображений для идентификатора вложения: 606
2020-11-13T05:48:42+00:00 INFO Регенерация изображений для идентификатора вложения: 605
2020-11-13T05:48:42+00:00 INFO Регенерация изображений для идентификатора вложения: 604
2020-11-13T05:48:43+00:00 INFO Регенерация изображений для идентификатора вложения: 603
2020-11-13T05:48:43+00:00 INFO Регенерация изображений для идентификатора вложения: 597
2020-11-13T05:48:44+00:00 INFO Регенерация изображений для идентификатора вложения: 596
2020-11-13T05:48:45+00:00 INFO Регенерация изображений для идентификатора вложения: 595
2020-11-13T05:48:45+00:00 INFO Регенерация изображений для идентификатора вложения: 594
2020-11-13T05:48:46+00:00 INFO Регенерация изображений для идентификатора вложения: 593
2020-11-13T05:48:47+00:00 INFO Регенерация изображений для идентификатора вложения: 587
2020-11-13T05:48:47+00:00 INFO Регенерация изображений для идентификатора вложения: 586
2020-11-13T05:48:48+00:00 INFO Регенерация изображений для идентификатора вложения: 585
2020-11-13T05:48:48+00:00 INFO Регенерация изображений для идентификатора вложения: 558
2020-11-13T05:48:49+00:00 INFO Регенерация изображений для идентификатора вложения: 551
2020-11-13T05:48:50+00:00 INFO Регенерация изображений для идентификатора вложения: 541
2020-11-13T05:48:50+00:00 INFO Регенерация изображений для идентификатора вложения: 538
2020-11-13T05:48:51+00:00 INFO Регенерация изображений для идентификатора вложения: 536
2020-11-13T05:48:51+00:00 INFO Регенерация изображений для идентификатора вложения: 479
2020-11-13T05:48:52+00:00 INFO Регенерация изображений для идентификатора вложения: 445
2020-11-13T05:48:52+00:00 INFO Регенерация изображений для идентификатора вложения: 418
2020-11-13T05:48:53+00:00 INFO Регенерация изображений для идентификатора вложения: 417
2020-11-13T05:48:53+00:00 INFO Регенерация изображений для идентификатора вложения: 395
2020-11-13T05:48:54+00:00 INFO Регенерация изображений для идентификатора вложения: 392
2020-11-13T05:48:54+00:00 INFO Регенерация изображений для идентификатора вложения: 389
2020-11-13T05:48:55+00:00 INFO Регенерация изображений для идентификатора вложения: 386
2020-11-13T05:48:55+00:00 INFO Регенерация изображений для идентификатора вложения: 383
2020-11-13T05:48:56+00:00 INFO Регенерация изображений для идентификатора вложения: 380
2020-11-13T05:48:57+00:00 INFO Регенерация изображений для идентификатора вложения: 361
2020-11-13T05:48:57+00:00 INFO Регенерация изображений для идентификатора вложения: 356
2020-11-13T05:48:58+00:00 INFO Регенерация изображений для идентификатора вложения: 353
2020-11-13T05:48:58+00:00 INFO Регенерация изображений для идентификатора вложения: 352
2020-11-13T05:48:59+00:00 INFO Регенерация изображений для идентификатора вложения: 334
2020-11-13T05:49:00+00:00 INFO Регенерация изображений для идентификатора вложения: 326
2020-11-13T05:49:01+00:00 INFO Регенерация изображений для идентификатора вложения: 300
2020-11-13T05:49:01+00:00 INFO Регенерация изображений для идентификатора вложения: 233
2020-11-13T05:49:02+00:00 INFO Регенерация изображений для идентификатора вложения: 232
2020-11-13T05:49:03+00:00 INFO Регенерация изображений для идентификатора вложения: 231
2020-11-13T05:49:03+00:00 INFO Регенерация изображений для идентификатора вложения: 222
2020-11-13T05:49:04+00:00 INFO Регенерация изображений для идентификатора вложения: 221
2020-11-13T05:49:04+00:00 INFO Регенерация изображений для идентификатора вложения: 220
2020-11-13T05:49:05+00:00 INFO Регенерация изображений для идентификатора вложения: 219
2020-11-13T05:49:05+00:00 INFO Регенерация изображений для идентификатора вложения: 186
2020-11-13T05:49:06+00:00 INFO Регенерация изображений для идентификатора вложения: 185
2020-11-13T05:49:07+00:00 INFO Регенерация изображений для идентификатора вложения: 182
2020-11-13T05:49:07+00:00 INFO Регенерация изображений для идентификатора вложения: 180
2020-11-13T05:49:08+00:00 INFO Регенерация изображений для идентификатора вложения: 162
2020-11-13T05:49:08+00:00 INFO Регенерация изображений для идентификатора вложения: 161
2020-11-13T05:49:09+00:00 INFO Регенерация изображений для идентификатора вложения: 155
2020-11-13T05:49:09+00:00 INFO Регенерация изображений для идентификатора вложения: 139
2020-11-13T05:49:10+00:00 INFO Регенерация изображений для идентификатора вложения: 81
2020-11-13T05:49:11+00:00 INFO Регенерация изображений для идентификатора вложения: 80
2020-11-13T05:49:11+00:00 INFO Регенерация изображений для идентификатора вложения: 74
2020-11-13T05:49:12+00:00 INFO Регенерация изображений для идентификатора вложения: 73
2020-11-13T05:49:12+00:00 INFO Регенерация изображений для идентификатора вложения: 72
2020-11-13T05:49:13+00:00 INFO Регенерация изображений для идентификатора вложения: 71
2020-11-13T05:49:13+00:00 INFO Регенерация изображений для идентификатора вложения: 70
2020-11-13T05:49:14+00:00 INFO Регенерация изображений для идентификатора вложения: 69
2020-11-13T05:49:14+00:00 INFO Регенерация изображений для идентификатора вложения: 38
2020-11-13T05:49:14+00:00 INFO Задание по регенерации изображения товара выполнено.
